{
  "BUYER": {
    "CUS_ID": "",
    "TYPE": "CN",
    "NATIONALITY": "",
    "NAME": "hoang chim to",
    "DOB": "19/02/1996",
    "GENDER": "M",
    "PROV": "",
    "DIST": "",
    "WARDS": "",
    "ADDRESS": "512 Hoang Hoa Tham",
    "IDCARD": "0936081422",
    "EMAIL": "hoangchimto@gmail.com",
    "PHONE": "0936081422",
    "FAX": "",
    "TAXCODE": ""
  },
  "HEALTH_INSUR": [
    {
      "CUS_ID": "",
      "TYPE": "CN",
      "NATIONALITY": "",
      "NAME": "Nguyễn Văn Tuấn",
      "DOB": "01/04/2021",
      "GENDER": "M",
      "PROV": "46",
      "DIST": "46474",
      "WARDS": "4647419765",
      "ADDRESS": "Chi nhánh Huế",
      "IDCARD": "98762131123",
      "EMAIL": "tuannv.it94@gmail.com",
      "PHONE": "0981448929",
      "FAX": "",
      "TAXCODE": "",
      "RELATIONSHIP": "BO_ME",
      "PRODUCT_CODE": "TAI_NAN",
      "PACK_CODE": "GOI_1",
      "REGION": "VN",
      "EFFECTIVE_DATE": "30/06/2021",
      "EXPIRATION_DATE": "30/06/2022",
      "FEES": "47000",
      "AMOUNT": "47000",
      "TOTAL_DISCOUNT": "0",
      "TOTAL_ADD": "0",
      "VAT": "0",
      "TOTAL_AMOUNT": ""
    }
  ],
  "PAY_INFO": {
    "PAYMENT_TYPE": "CTT"
  }
}
